{ "compressionlevel":-1,
 "editorsettings":
    {
     "export":
        {
         "target":"."
        }
    },
 "height":145,
 "infinite":false,
 "layers":[
        {
         "data":[0, 0, 0, 0, 0, 1, 2, 3, 1, 2, 0, 0, 0, 0, 0, 1, 2, 0, 0, 0, 0, 0, 1, 2, 3, 1, 2, 0, 0, 0, 0, 0, 1, 2, 0, 0, 0, 0, 0, 1, 2, 3, 1, 2, 0, 0, 0, 0, 0, 1, 2, 0, 0, 0, 0, 0, 1, 2, 3, 1, 2, 0, 0, 0, 0, 0, 1, 2, 0, 0, 0, 0, 0, 1, 2, 3, 1, 2, 0, 0, 0, 0, 0, 1, 2, 0, 0, 0, 0, 0, 1, 2, 3, 1, 2, 0, 0, 0, 0, 0, 1, 2, 0, 0, 0, 0, 0, 1, 2, 3, 1, 2, 0, 0, 0, 0, 0, 1, 2, 0, 0, 0, 0, 0, 1, 2, 3, 1, 2, 0, 0, 0, 0, 0, 1, 2, 0, 0, 0, 0, 0, 1, 2, 3, 1, 2, 0, 0, 0, 0, 0, 1, 2, 0, 0, 0, 0, 0, 1, 2, 3, 1, 2, 0, 0, 0, 0, 0, 1, 2, 0, 0, 0, 0, 0, 1, 2, 3, 1, 2, 0, 0, 0, 0, 0, 1, 2, 0, 0, 0, 0, 0, 1, 2, 3, 1, 2, 0, 0, 0, 0, 0, 1, 2, 0, 0, 0, 0, 0, 1, 2, 3, 1, 2, 0, 0, 0, 0, 0, 1, 2, 0, 0, 0, 0, 0, 1, 2, 3, 1, 2, 0, 0, 0, 0, 0, 1, 2, 0, 0, 0, 0, 0, 1, 2, 3, 1, 2, 0, 0, 0, 0, 0, 1, 2, 0, 0, 0, 0, 0, 1, 2, 3, 1, 2, 0, 0, 0, 0, 0, 1, 2, 0, 0, 0, 0, 0, 1, 2, 3, 1, 2, 0, 0, 0, 0, 0, 1, 2, 0, 0, 0, 0, 0, 1, 2, 3, 1, 2, 0, 0, 0, 0, 0, 1, 2, 0, 0, 0, 0, 0, 1, 2, 3, 1, 2, 0, 0, 0, 0, 0, 1, 2, 0, 0, 0, 0, 0, 1, 2, 3, 1, 2, 0, 0, 0, 0, 0, 1, 2, 0, 0, 0, 0, 0, 1, 2, 3, 1, 2, 0, 0, 0, 0, 0, 1, 2, 0, 0, 0, 0, 0, 1, 2, 3, 1, 2, 0, 0, 0, 0, 0, 1, 2, 0, 0, 0, 0, 0, 1, 2, 3, 1, 2, 0, 0, 0, 0, 0, 1, 2, 0, 0, 0, 0, 0, 1, 2, 3, 1, 2, 0, 0, 0, 0, 0, 1, 2, 0, 0, 0, 0, 0, 1, 2, 3, 1, 2, 0, 0, 0, 0, 0, 1, 2, 0, 0, 0, 0, 0, 1, 2, 3, 1, 2, 0, 0, 0, 0, 0, 1, 2, 0, 0, 0, 0, 0, 1, 2, 3, 1, 2, 0, 0, 0, 0, 0, 1, 2, 0, 0, 0, 0, 0, 1, 2, 3, 1, 2, 0, 0, 0, 0, 0, 1, 2, 0, 0, 0, 0, 0, 1, 2, 3, 1, 2, 0, 0, 0, 0, 0, 1, 2, 0, 0, 0, 0, 0, 1, 2, 3, 1, 2, 0, 0, 0, 0, 0, 1, 2, 0, 0, 0, 0, 0, 1, 2, 3, 1, 2, 0, 0, 0, 0, 0, 1, 2, 0, 0, 0, 0, 0, 1, 2, 3, 1, 2, 0, 0, 0, 0, 0, 1, 2, 0, 0, 0, 0, 0, 1, 2, 3, 1, 2, 0, 0, 0, 0, 0, 1, 2, 0, 0, 0, 0, 0, 1, 2, 3, 1, 2, 0, 0, 0, 0, 0, 1, 2, 0, 0, 0, 0, 0, 1, 2, 3, 1, 2, 0, 0, 0, 0, 0, 1, 2, 0, 0, 0, 0, 0, 1, 2, 3, 1, 2, 0, 0, 0, 0, 0, 1, 2, 0, 0, 0, 0, 0, 1, 2, 3, 1, 2, 0, 0, 0, 0, 0, 1, 2, 0, 0, 0, 0, 0, 1, 2, 3, 1, 2, 0, 0, 0, 0, 0, 1, 2, 0, 0, 0, 0, 0, 1, 2, 3, 1, 2, 0, 0, 0, 0, 0, 1, 2, 0, 0, 0, 0, 0, 1, 2, 3, 1, 2, 0, 0, 0, 0, 0, 1, 2, 0, 0, 0, 0, 0, 1, 2, 3, 1, 2, 0, 0, 0, 0, 0, 1, 2, 0, 0, 0, 0, 0, 1, 2, 3, 1, 2, 0, 0, 0, 0, 0, 1, 2, 0, 0, 0, 0, 0, 1, 2, 3, 1, 2, 0, 0, 0, 0, 0, 1, 2, 0, 0, 0, 0, 0, 1, 2, 3, 1, 2, 0, 0, 0, 0, 0, 1, 2, 0, 0, 0, 0, 0, 1, 2, 3, 1, 2, 0, 0, 0, 0, 0, 1, 2, 0, 0, 0, 0, 0, 1, 2, 3, 1, 2, 0, 0, 0, 0, 0, 1, 2, 0, 0, 0, 0, 0, 1, 2, 3, 1, 2, 0, 0, 0, 0, 0, 1, 2, 0, 0, 0, 0, 0, 1, 2, 3, 1, 2, 0, 0, 0, 0, 0, 1, 2, 0, 0, 0, 0, 0, 1, 2, 3, 1, 2, 0, 0, 0, 0, 0, 1, 2, 0, 0, 0, 0, 0, 1, 2, 3, 1, 2, 0, 0, 0, 0, 0, 1, 2, 0, 0, 0, 0, 0, 1, 2, 3, 1, 2, 0, 0, 0, 0, 0, 1, 2, 0, 0, 0, 0, 0, 1, 2, 3, 1, 2, 0, 0, 0, 0, 0, 1, 2, 0, 0, 0, 0, 0, 1, 2, 3, 1, 2, 0, 0, 0, 0, 0, 1, 2, 0, 0, 0, 0, 0, 1, 2, 3, 1, 2, 0, 0, 0, 0, 0, 1, 2, 0, 0, 0, 0, 0, 1, 2, 3, 1, 2, 0, 0, 0, 0, 0, 1, 2, 0, 0, 0, 0, 0, 1, 2, 3, 1, 2, 0, 0, 0, 0, 0, 1, 2, 0, 0, 0, 0, 0, 1, 2, 3, 1, 2, 0, 0, 0, 0, 0, 1, 2, 0, 0, 0, 0, 0, 1, 2, 3, 1, 2, 0, 0, 0, 0, 0, 1, 2, 0, 0, 0, 0, 0, 1, 2, 3, 1, 2, 0, 0, 0, 0, 0, 1, 2, 0, 0, 0, 0, 0, 1, 2, 3, 1, 2, 0, 0, 0, 0, 0, 1, 2, 0, 0, 0, 0, 0, 1, 2, 3, 1, 2, 0, 0, 0, 0, 0, 1, 2, 0, 0, 0, 0, 0, 1, 2, 3, 1, 2, 0, 0, 0, 0, 0, 1, 2, 0, 0, 0, 0, 0, 1, 2, 3, 1, 2, 0, 0, 0, 0, 0, 1, 2, 0, 0, 0, 0, 0, 1, 2, 3, 1, 2, 0, 0, 0, 0, 0, 1, 2, 0, 0, 0, 0, 0, 1, 2, 3, 1, 2, 0, 0, 0, 0, 0, 1, 2, 0, 0, 0, 0, 0, 1, 2, 3, 1, 2, 0, 0, 0, 0, 0, 1, 2, 0, 0, 0, 0, 0, 1, 2, 3, 1, 2, 0, 0, 0, 0, 0, 1, 2, 0, 0, 0, 0, 0, 1, 2, 3, 1, 2, 0, 0, 0, 0, 0, 1, 2, 0, 0, 0, 0, 0, 1, 2, 3, 1, 2, 0, 0, 0, 0, 0, 1, 2, 0, 0, 0, 0, 0, 1, 2, 3, 1, 2, 0, 0, 0, 0, 0, 1, 2, 0, 0, 0, 0, 0, 1, 2, 3, 1, 2, 0, 0, 0, 0, 0, 1, 2, 0, 0, 0, 0, 0, 1, 2, 3, 1, 2, 0, 0, 0, 0, 0, 1, 2, 0, 0, 0, 0, 0, 1, 2, 3, 1, 2, 0, 0, 0, 0, 0, 1, 2, 0, 0, 0, 0, 0, 1, 2, 3, 1, 2, 0, 0, 0, 0, 0, 1, 2, 0, 0, 0, 0, 0, 1, 2, 3, 1, 2, 0, 0, 0, 0, 0, 1, 2, 0, 0, 0, 0, 0, 1, 2, 3, 1, 2, 0, 0, 0, 0, 0, 1, 2, 0, 0, 0, 0, 0, 1, 2, 3, 1, 2, 0, 0, 0, 0, 0, 1, 2, 0, 0, 0, 0, 0, 1, 2, 3, 1, 2, 0, 0, 0, 0, 0, 1, 2, 0, 0, 0, 0, 0, 1, 2, 3, 1, 2, 0, 0, 0, 0, 0, 1, 2, 0, 0, 0, 0, 0, 1, 2, 3, 1, 2, 0, 0, 0, 0, 0, 1, 2, 0, 0, 0, 0, 0, 1, 2, 3, 1, 2, 0, 0, 0, 0, 0, 1, 2, 0, 0, 0, 0, 0, 1, 2, 3, 1, 2, 0, 0, 0, 0, 0, 1, 2, 0, 0, 0, 0, 0, 1, 2, 3, 1, 2, 0, 0, 0, 0, 0, 1, 2, 0, 0, 0, 0, 0, 1, 2, 3, 1, 2, 0, 0, 0, 0, 0, 1, 2, 0, 0, 0, 0, 0, 1, 2, 3, 1, 2, 0, 0, 0, 0, 0, 1, 2, 0, 0, 0, 0, 0, 1, 2, 3, 1, 2, 0, 0, 0, 0, 0, 1, 2, 0, 0, 0, 0, 0, 1, 2, 3, 1, 2, 0, 0, 0, 0, 0, 1, 2, 0, 0, 0, 0, 0, 1, 2, 3, 1, 2, 0, 0, 0, 0, 0, 1, 2, 0, 0, 0, 0, 0, 1, 2, 3, 1, 2, 0, 0, 0, 0, 0, 1, 2, 0, 0, 0, 0, 0, 1, 2, 3, 1, 2, 0, 0, 0, 0, 0, 1, 2, 0, 0, 0, 0, 0, 1, 2, 3, 1, 2, 0, 0, 0, 0, 0, 1, 2, 0, 0, 0, 0, 0, 1, 2, 3, 1, 2, 0, 0, 0, 0, 0, 1, 2, 0, 0, 0, 0, 0, 1, 2, 3, 1, 2, 0, 0, 0, 0, 0, 1, 2, 0, 0, 0, 0, 0, 1, 2, 3, 1, 2, 0, 0, 0, 0, 0, 1, 2, 0, 0, 0, 0, 0, 1, 2, 3, 1, 2, 0, 0, 0, 0, 0, 1, 2, 0, 0, 0, 0, 0, 1, 2, 3, 1, 2, 0, 0, 0, 0, 0, 1, 2, 0, 0, 0, 0, 0, 1, 2, 3, 1, 2, 0, 0, 0, 0, 0, 1, 2, 0, 0, 0, 0, 0, 1, 2, 3, 1, 2, 0, 0, 0, 0, 0, 1, 2, 0, 0, 0, 0, 0, 1, 2, 3, 1, 2, 0, 0, 0, 0, 0, 1, 2, 0, 0, 0, 0, 0, 1, 2, 3, 1, 2, 0, 0, 0, 0, 0, 1, 2, 0, 0, 0, 0, 0, 1, 2, 3, 1, 2, 0, 0, 0, 0, 0, 1, 2, 0, 0, 0, 0, 0, 1, 2, 3, 1, 2, 0, 0, 0, 0, 0, 1, 2, 0, 0, 0, 0, 0, 1, 2, 3, 1, 2, 0, 0, 0, 0, 0, 1, 2, 0, 0, 0, 0, 0, 1, 2, 3, 1, 2, 0, 0, 0, 0, 0, 1, 2, 0, 0, 0, 0, 0, 1, 2, 3, 1, 2, 0, 0, 0, 0, 0, 1, 2, 0, 0, 0, 0, 0, 1, 2, 3, 1, 2, 0, 0, 0, 0, 0, 1, 2, 0, 0, 0, 0, 0, 1, 2, 3, 1, 2, 0, 0, 0, 0, 0, 1, 2, 0, 0, 0, 0, 0, 1, 2, 3, 1, 2, 0, 0, 0, 0, 0, 1, 2, 0, 0, 0, 0, 0, 1, 2, 3, 1, 2, 0, 0, 0, 0, 0, 1, 2, 0, 0, 0, 0, 0, 1, 2, 3, 1, 2, 0, 0, 0, 0, 0, 1, 2, 0, 0, 0, 0, 0, 1, 2, 3, 1, 2, 0, 0, 0, 0, 0, 1, 2, 0, 0, 0, 0, 0, 1, 2, 3, 1, 2, 0, 0, 0, 0, 0, 1, 2, 0, 0, 0, 0, 0, 1, 2, 3, 1, 2, 0, 0, 0, 0, 0, 1, 2, 0, 0, 0, 0, 0, 1, 2, 3, 1, 2, 0, 0, 0, 0, 0, 1, 2, 0, 0, 0, 0, 0, 1, 2, 3, 1, 2, 0, 0, 0, 0, 0, 1, 2, 0, 0, 0, 0, 0, 1, 2, 3, 1, 2, 0, 0, 0, 0, 0, 1, 2, 0, 0, 0, 0, 0, 1, 2, 3, 1, 2, 0, 0, 0, 0, 0, 1, 2, 0, 0, 0, 0, 0, 1, 2, 3, 1, 2, 0, 0, 0, 0, 0, 1, 2, 0, 0, 0, 0, 0, 1, 2, 3, 1, 2, 0, 0, 0, 0, 0, 1, 2, 0, 0, 0, 0, 0, 1, 2, 3, 1, 2, 0, 0, 0, 0, 0, 1, 2, 0, 0, 0, 0, 0, 1, 2, 3, 1, 2, 0, 0, 0, 0, 0, 1, 2, 0, 0, 0, 0, 0, 1, 2, 3, 1, 2, 0, 0, 0, 0, 0, 1, 2, 0, 0, 0, 0, 0, 1, 2, 3, 1, 2, 0, 0, 0, 0, 0, 1, 2, 0, 0, 0, 0, 0, 1, 2, 3, 1, 2, 0, 0, 0, 0, 0, 1, 2, 0, 0, 0, 0, 0, 1, 2, 3, 1, 2, 0, 0, 0, 0, 0, 1, 2, 0, 0, 0, 0, 0, 1, 2, 3, 1, 2, 0, 0, 0, 0, 0, 1, 2, 0, 0, 0, 0, 0, 1, 2, 3, 1, 2, 0, 0, 0, 0, 0, 1, 2, 0, 0, 0, 0, 0, 1, 2, 3, 1, 2, 0, 0, 0, 0, 0, 1, 2, 0, 0, 0, 0, 0, 1, 2, 3, 1, 2, 0, 0, 0, 0, 0, 1, 2, 0, 0, 0, 0, 0, 1, 2, 3, 1, 2, 0, 0, 0, 0, 0, 1, 2, 0, 0, 0, 0, 0, 1, 2, 3, 1, 2, 0, 0, 0, 0, 0, 1, 2, 0, 0, 0, 0, 0, 1, 2, 3, 1, 2, 0, 0, 0, 0, 0, 1, 2, 0, 0, 0, 0, 0, 1, 2, 3, 1, 2, 0, 0, 0, 0, 0, 1, 2, 0, 0, 0, 0, 0, 1, 2, 3, 1, 2, 0, 0, 0, 0, 0, 1, 2, 0, 0, 0, 0, 0, 1, 2, 3, 1, 2, 0, 0, 0, 0, 0, 1, 2, 0, 0, 0, 0, 0, 1, 2, 3, 1, 2, 0, 0, 0, 0, 0, 1, 2, 0, 0, 0, 0, 0, 1, 2, 3, 1, 2, 0, 0, 0, 0, 0, 1, 2, 0, 0, 0, 0, 0, 1, 2, 3, 1, 2, 0, 0, 0, 0, 0, 1, 2, 0, 0, 0, 0, 0, 1, 2, 3, 1, 2, 0, 0, 0, 0, 0, 1, 2, 0, 0, 0, 0, 0, 1, 2, 3, 1, 2, 0, 0, 0, 0, 0, 1, 2, 0, 0, 0, 0, 0, 1, 2, 3, 1, 2, 0, 0, 0, 0, 0, 1, 2, 0, 0, 0, 0, 0, 1, 2, 3, 1, 2, 0, 0, 0, 0, 0, 1, 2, 0, 0, 0, 0, 0, 1, 2, 3, 1, 2, 0, 0, 0, 0, 0, 1, 2, 0, 0, 0, 0, 0, 1, 2, 3, 1, 2, 0, 0, 0, 0, 0, 1, 2, 0, 0, 0, 0, 0, 1, 2, 3, 1, 2, 0, 0, 0, 0, 0, 1, 2],
         "height":145,
         "id":1,
         "name":"Gleise",
         "opacity":1,
         "type":"tilelayer",
         "visible":true,
         "width":17,
         "x":0,
         "y":0
        }, 
        {
         "data":[0, 0, 5, 5, 6, 0, 0, 0, 0, 0, 0, 0, 0, 0, 0, 0, 0, 0, 0, 5, 5, 6, 0, 0, 0, 0, 0, 0, 0, 0, 0, 0, 0, 0, 0, 0, 5, 5, 6, 0, 0, 0, 0, 0, 0, 0, 0, 0, 0, 0, 0, 0, 0, 5, 5, 6, 0, 0, 0, 0, 0, 0, 0, 0, 0, 0, 0, 0, 0, 0, 5, 5, 6, 0, 0, 0, 0, 0, 0, 0, 0, 0, 0, 0, 0, 0, 0, 5, 5, 6, 0, 0, 0, 0, 0, 0, 0, 0, 0, 0, 0, 0, 0, 0, 5, 5, 6, 0, 0, 0, 0, 0, 0, 0, 0, 0, 0, 0, 0, 0, 0, 5, 5, 6, 0, 0, 0, 0, 0, 0, 0, 0, 0, 0, 0, 0, 0, 0, 5, 5, 6, 0, 0, 0, 0, 0, 0, 0, 0, 0, 0, 0, 0, 0, 0, 5, 5, 6, 0, 0, 0, 0, 0, 0, 0, 0, 0, 0, 0, 0, 0, 0, 5, 5, 6, 0, 0, 0, 0, 0, 0, 0, 0, 0, 0, 0, 0, 0, 0, 5, 5, 6, 0, 0, 0, 0, 0, 0, 0, 0, 0, 0, 0, 0, 0, 0, 5, 5, 6, 0, 0, 0, 0, 0, 0, 0, 0, 0, 0, 0, 0, 0, 0, 5, 5, 6, 0, 0, 0, 0, 0, 0, 0, 0, 0, 0, 0, 0, 0, 0, 5, 5, 6, 0, 0, 0, 0, 0, 0, 0, 0, 0, 0, 0, 0, 0, 0, 5, 5, 6, 0, 0, 0, 0, 0, 0, 0, 0, 0, 0, 0, 0, 0, 0, 5, 5, 6, 0, 0, 0, 0, 0, 0, 0, 0, 0, 0, 0, 0, 0, 0, 5, 5, 6, 0, 0, 0, 0, 0, 4, 5, 5, 5, 6, 0, 0, 0, 0, 5, 5, 6, 0, 0, 0, 0, 0, 4, 5, 5, 5, 6, 0, 0, 0, 0, 5, 5, 6, 0, 0, 0, 0, 0, 4, 5, 5, 5, 6, 0, 0, 0, 0, 5, 5, 6, 0, 0, 0, 0, 0, 4, 5, 5, 5, 6, 0, 0, 0, 0, 5, 5, 6, 0, 0, 0, 0, 0, 4, 5, 5, 5, 6, 0, 0, 0, 0, 5, 5, 6, 0, 0, 0, 0, 0, 4, 5, 5, 5, 6, 0, 0, 0, 0, 5, 5, 6, 0, 0, 0, 0, 0, 4, 5, 5, 5, 6, 0, 0, 0, 0, 5, 5, 6, 0, 0, 0, 0, 0, 4, 5, 5, 5, 6, 0, 0, 0, 0, 5, 5, 6, 0, 0, 0, 0, 0, 4, 5, 5, 5, 6, 0, 0, 0, 0, 5, 5, 6, 0, 0, 0, 0, 0, 4, 5, 5, 5, 6, 0, 0, 0, 0, 5, 5, 6, 0, 0, 0, 0, 0, 4, 5, 5, 5, 6, 0, 0, 0, 0, 5, 5, 6, 0, 0, 0, 0, 0, 4, 5, 5, 5, 6, 0, 0, 5, 5, 5, 5, 6, 0, 0, 0, 0, 0, 4, 5, 5, 5, 6, 0, 0, 5, 5, 5, 5, 6, 0, 0, 0, 0, 0, 4, 5, 5, 5, 6, 0, 0, 5, 5, 5, 5, 6, 0, 0, 0, 0, 0, 4, 5, 5, 5, 6, 0, 0, 5, 5, 5, 5, 6, 0, 0, 0, 0, 0, 4, 5, 5, 5, 6, 0, 0, 5, 5, 5, 5, 6, 0, 0, 0, 0, 0, 4, 5, 5, 5, 6, 0, 0, 5, 5, 5, 5, 6, 0, 0, 0, 0, 0, 4, 5, 5, 5, 6, 0, 0, 5, 5, 5, 5, 6, 0, 0, 0, 0, 0, 4, 5, 5, 5, 6, 0, 0, 5, 5, 5, 5, 6, 0, 0, 0, 0, 0, 4, 5, 5, 5, 6, 0, 0, 5, 5, 5, 5, 6, 0, 0, 0, 0, 0, 4, 5, 5, 5, 6, 0, 0, 5, 5, 5, 5, 6, 0, 0, 0, 0, 0, 4, 5, 5, 5, 6, 0, 0, 5, 5, 5, 5, 6, 0, 0, 0, 0, 0, 4, 5, 5, 5, 6, 0, 0, 5, 5, 5, 5, 6, 0, 0, 0, 0, 0, 4, 5, 5, 5, 6, 0, 0, 5, 5, 5, 5, 6, 0, 0, 0, 0, 0, 4, 5, 5, 5, 6, 0, 0, 5, 5, 5, 5, 6, 0, 0, 0, 0, 0, 4, 5, 5, 5, 6, 0, 0, 5, 5, 5, 5, 6, 0, 0, 0, 0, 0, 4, 5, 5, 5, 6, 0, 0, 5, 5, 5, 5, 6, 0, 0, 0, 0, 0, 4, 5, 5, 5, 6, 0, 0, 5, 5, 5, 5, 6, 0, 0, 0, 0, 0, 4, 5, 5, 5, 6, 0, 0, 5, 5, 5, 5, 6, 0, 0, 0, 0, 0, 4, 5, 5, 5, 6, 0, 0, 5, 5, 5, 5, 6, 0, 0, 0, 0, 0, 4, 5, 5, 5, 6, 0, 0, 5, 5, 5, 5, 6, 0, 0, 0, 0, 0, 4, 5, 5, 5, 6, 0, 0, 5, 5, 5, 5, 6, 0, 0, 0, 0, 0, 4, 5, 5, 5, 6, 0, 0, 5, 5, 5, 5, 6, 0, 0, 0, 0, 0, 4, 5, 5, 5, 6, 0, 0, 5, 5, 5, 5, 6, 0, 0, 0, 0, 0, 4, 5, 5, 5, 6, 0, 0, 5, 5, 5, 5, 6, 0, 0, 0, 0, 0, 4, 5, 5, 5, 6, 0, 0, 5, 5, 5, 5, 6, 0, 0, 0, 0, 0, 4, 5, 5, 5, 6, 0, 0, 5, 5, 5, 5, 6, 0, 0, 0, 0, 0, 4, 5, 5, 5, 6, 0, 0, 5, 5, 5, 5, 6, 0, 0, 0, 0, 0, 4, 5, 5, 5, 6, 0, 0, 5, 5, 5, 5, 6, 0, 0, 0, 0, 0, 4, 5, 5, 5, 6, 0, 0, 5, 5, 5, 5, 6, 0, 0, 0, 0, 0, 4, 5, 5, 5, 6, 0, 0, 5, 5, 5, 5, 6, 0, 0, 0, 0, 0, 4, 5, 5, 5, 6, 0, 0, 5, 5, 5, 5, 6, 0, 0, 0, 0, 0, 4, 5, 5, 5, 6, 0, 0, 5, 5, 5, 5, 6, 0, 0, 0, 0, 0, 4, 5, 5, 5, 6, 0, 0, 5, 5, 5, 5, 6, 0, 0, 0, 0, 0, 4, 5, 5, 5, 6, 0, 0, 5, 5, 5, 5, 6, 0, 0, 0, 0, 0, 4, 5, 5, 5, 6, 0, 0, 5, 5, 5, 5, 6, 0, 0, 0, 0, 0, 4, 5, 5, 5, 6, 0, 0, 5, 5, 5, 5, 6, 0, 0, 0, 0, 0, 4, 5, 5, 5, 6, 0, 0, 5, 5, 5, 5, 6, 0, 0, 0, 0, 0, 4, 5, 5, 5, 6, 0, 0, 5, 5, 5, 5, 6, 0, 0, 0, 0, 0, 4, 5, 5, 5, 6, 0, 0, 5, 5, 5, 5, 6, 0, 0, 0, 0, 0, 4, 5, 5, 5, 6, 0, 0, 5, 5, 5, 5, 6, 0, 0, 0, 0, 0, 4, 5, 5, 5, 6, 0, 0, 5, 5, 5, 5, 6, 0, 0, 0, 0, 0, 4, 5, 5, 5, 6, 0, 0, 5, 5, 5, 5, 6, 0, 0, 0, 0, 0, 4, 5, 5, 5, 6, 0, 0, 5, 5, 5, 5, 6, 0, 0, 0, 0, 0, 4, 5, 5, 5, 6, 0, 0, 5, 5, 5, 5, 6, 0, 0, 0, 0, 0, 4, 5, 5, 5, 6, 0, 0, 5, 5, 5, 5, 6, 0, 0, 0, 0, 0, 4, 5, 5, 5, 6, 0, 0, 5, 5, 5, 5, 6, 0, 0, 0, 0, 0, 4, 5, 5, 5, 6, 0, 0, 5, 5, 5, 5, 6, 0, 0, 0, 0, 0, 4, 5, 5, 5, 6, 0, 0, 5, 5, 5, 5, 6, 0, 0, 0, 0, 0, 4, 5, 5, 5, 6, 0, 0, 5, 5, 5, 5, 6, 0, 0, 0, 0, 0, 4, 5, 5, 5, 6, 0, 0, 5, 5, 5, 5, 6, 0, 0, 0, 0, 0, 4, 5, 5, 5, 6, 0, 0, 5, 5, 5, 5, 6, 0, 0, 0, 0, 0, 4, 5, 5, 5, 6, 0, 0, 5, 5, 5, 5, 6, 0, 0, 0, 0, 0, 4, 5, 5, 5, 6, 0, 0, 5, 5, 5, 5, 6, 0, 0, 0, 0, 0, 4, 5, 5, 5, 6, 0, 0, 5, 5, 5, 5, 6, 0, 0, 0, 0, 0, 4, 5, 5, 5, 6, 0, 0, 5, 5, 5, 5, 6, 0, 0, 0, 0, 0, 4, 5, 5, 5, 6, 0, 0, 5, 5, 5, 5, 6, 0, 0, 0, 0, 0, 4, 5, 5, 5, 6, 0, 0, 5, 5, 5, 5, 6, 0, 0, 0, 0, 0, 4, 5, 5, 5, 6, 0, 0, 5, 5, 5, 5, 6, 0, 0, 0, 0, 0, 4, 5, 5, 5, 6, 0, 0, 5, 5, 5, 5, 6, 0, 0, 0, 0, 0, 4, 5, 5, 5, 6, 0, 0, 5, 5, 5, 5, 6, 0, 0, 0, 0, 0, 4, 5, 5, 5, 6, 0, 0, 5, 5, 5, 5, 6, 0, 0, 0, 0, 0, 4, 5, 5, 5, 6, 0, 0, 5, 5, 5, 5, 6, 0, 0, 0, 0, 0, 4, 5, 5, 5, 6, 0, 0, 5, 5, 5, 5, 6, 0, 0, 0, 0, 0, 4, 5, 5, 5, 6, 0, 0, 5, 5, 5, 5, 6, 0, 0, 0, 0, 0, 4, 5, 5, 5, 6, 0, 0, 5, 5, 5, 5, 6, 0, 0, 0, 0, 0, 4, 5, 5, 5, 6, 0, 0, 5, 5, 5, 5, 6, 0, 0, 0, 0, 0, 4, 5, 5, 5, 6, 0, 0, 5, 5, 5, 5, 6, 0, 0, 0, 0, 0, 4, 5, 5, 5, 6, 0, 0, 5, 5, 5, 5, 6, 0, 0, 0, 0, 0, 4, 5, 5, 5, 6, 0, 0, 5, 5, 5, 5, 6, 0, 0, 0, 0, 0, 4, 5, 5, 5, 6, 0, 0, 0, 0, 0, 0, 0, 0, 0, 0, 0, 0, 4, 5, 5, 5, 6, 0, 0, 0, 0, 0, 0, 0, 0, 0, 0, 0, 0, 4, 5, 5, 5, 6, 0, 0, 0, 0, 0, 0, 0, 0, 0, 0, 0, 0, 4, 5, 5, 5, 6, 0, 0, 0, 0, 0, 0, 0, 0, 0, 0, 0, 0, 4, 5, 5, 5, 6, 0, 0, 0, 0, 0, 0, 0, 0, 0, 0, 0, 0, 4, 5, 5, 5, 6, 0, 0, 0, 0, 0, 0, 0, 0, 0, 0, 0, 0, 4, 5, 5, 5, 6, 0, 0, 0, 0, 0, 0, 0, 0, 0, 0, 0, 0, 4, 5, 5, 5, 6, 0, 0, 0, 0, 0, 0, 0, 0, 0, 0, 0, 0, 4, 5, 5, 5, 6, 0, 0, 0, 0, 0, 0, 0, 0, 0, 0, 0, 0, 4, 5, 5, 5, 6, 0, 0, 0, 0, 0, 0, 0, 0, 0, 0, 0, 0, 4, 5, 5, 5, 6, 0, 0, 0, 0, 0, 0, 0, 0, 0, 0, 0, 0, 4, 5, 5, 5, 6, 0, 0, 0, 0, 0, 0, 0, 0, 0, 0, 0, 0, 4, 5, 5, 5, 6, 0, 0, 0, 0, 0, 0, 0, 0, 0, 0, 0, 0, 4, 5, 5, 5, 6, 0, 0, 0, 0, 0, 0, 0, 0, 0, 0, 0, 0, 4, 5, 5, 5, 6, 0, 0, 0, 0, 0, 0, 0, 0, 0, 0, 0, 0, 4, 5, 5, 5, 6, 0, 0, 0, 0, 0, 0, 0, 0, 0, 0, 0, 0, 4, 5, 5, 5, 6, 0, 0, 0, 0, 0, 0, 0, 0, 0, 0, 0, 0, 4, 5, 5, 5, 6, 0, 0, 0, 0, 0, 0, 0, 0, 0, 0, 0, 0, 4, 5, 5, 5, 6, 0, 0, 0, 0, 0, 0, 0, 0, 0, 0, 0, 0, 4, 5, 5, 5, 6, 0, 0, 0, 0, 0, 0, 0, 0, 0, 0, 0, 0, 4, 5, 5, 5, 6, 0, 0, 0, 0, 0, 0, 0, 0, 0, 0, 0, 0, 4, 5, 5, 5, 6, 0, 0, 0, 0, 0, 0, 0, 0, 0, 0, 0, 0, 4, 5, 5, 5, 6, 0, 0, 0, 0, 0, 0, 0, 0, 0, 0, 0, 0, 4, 5, 5, 5, 6, 0, 0, 0, 0, 0, 0, 0, 0, 0, 0, 0, 0, 4, 5, 5, 5, 6, 0, 0, 0, 0, 0, 0, 0, 0, 0, 0, 0, 0, 4, 5, 5, 5, 6, 0, 0, 0, 0, 0, 0, 0, 0, 0, 0, 0, 0, 4, 5, 5, 5, 6, 0, 0, 0, 0, 0, 0, 0, 0, 0, 0, 0, 0, 4, 5, 5, 5, 6, 0, 0, 0, 0, 0, 0, 0, 0, 0, 0, 0, 0, 4, 5, 5, 5, 6, 0, 0, 0, 0, 0, 0, 0, 0, 0, 0, 0, 0, 4, 5, 5, 5, 6, 0, 0, 0, 0, 0, 0, 0, 0, 0, 0, 0, 0, 4, 5, 5, 5, 6, 0, 0, 0, 0, 0, 0, 0, 0, 0, 0, 0, 0, 4, 5, 5, 5, 6, 0, 0, 0, 0, 0, 0, 0, 0, 0, 0, 0, 0, 4, 5, 5, 5, 6, 0, 0, 0, 0, 0, 0, 0, 0, 0, 0, 0, 0, 4, 5, 5, 5, 6, 0, 0, 0, 0, 0, 0, 0, 0, 0, 0, 0, 0, 4, 5, 5, 5, 6, 0, 0, 0, 0, 0, 0, 0, 0, 0, 0, 0, 0, 4, 5, 5, 5, 6, 0, 0, 0, 0, 0, 0, 0, 0, 0, 0, 0, 0, 4, 5, 5, 5, 6, 0, 0, 0, 0, 0, 0, 0, 0, 0, 0, 0, 0, 4, 5, 5, 5, 6, 0, 0, 0, 0, 0, 0, 0, 0, 0, 0, 0, 0, 4, 5, 5, 5, 6, 0, 0, 0, 0, 0, 0, 0, 0, 0, 0, 0, 0, 4, 5, 5, 5, 6, 0, 0, 0, 0, 0, 0, 0, 0, 0, 0, 0, 0, 4, 5, 5, 5, 6, 0, 0, 0, 0, 0, 0, 0, 0, 0, 0, 0, 0, 4, 5, 5, 5, 6, 0, 0, 0, 0, 0, 0, 0, 0, 0, 0, 0, 0, 4, 5, 5, 5, 6, 0, 0, 0, 0, 0, 0, 0, 0, 0, 0, 0, 0, 4, 5, 5, 5, 6, 0, 0, 0, 0, 0, 0, 0, 0, 0, 0, 0, 0, 4, 5, 5, 5, 6, 0, 0, 0, 0, 0, 0, 0, 0, 0, 0, 0, 0, 4, 5, 5, 5, 6, 0, 0, 0, 0, 0, 0, 0, 0, 0, 0, 0, 0, 4, 5, 5, 5, 6, 0, 0, 0, 0, 0, 0, 0, 0, 0, 0, 0, 0, 4, 5, 5, 5, 6, 0, 0],
         "height":145,
         "id":2,
         "name":"Bahnsteige",
         "opacity":1,
         "type":"tilelayer",
         "visible":true,
         "width":17,
         "x":0,
         "y":0
        }, 
        {
         "data":[0, 0, 0, 0, 0, 0, 0, 0, 0, 0, 0, 0, 0, 0, 0, 0, 0, 0, 0, 0, 0, 0, 0, 0, 0, 0, 0, 0, 0, 0, 0, 0, 0, 0, 0, 0, 0, 0, 0, 0, 0, 0, 0, 0, 0, 0, 0, 0, 0, 0, 0, 0, 0, 0, 0, 0, 0, 0, 0, 0, 0, 0, 0, 0, 0, 0, 0, 0, 0, 0, 0, 0, 0, 0, 0, 0, 0, 0, 0, 0, 0, 0, 0, 0, 0, 0, 0, 0, 0, 0, 0, 0, 0, 0, 0, 0, 0, 0, 0, 0, 0, 0, 0, 0, 0, 0, 0, 0, 0, 0, 0, 0, 0, 0, 0, 0, 0, 0, 0, 0, 0, 0, 0, 0, 0, 0, 0, 0, 0, 0, 0, 0, 0, 0, 0, 0, 0, 0, 0, 0, 0, 0, 0, 0, 0, 0, 0, 0, 0, 0, 0, 0, 0, 0, 0, 0, 0, 0, 0, 0, 0, 0, 0, 0, 0, 0, 0, 0, 0, 0, 0, 0, 0, 0, 0, 0, 0, 0, 0, 0, 0, 0, 0, 0, 0, 0, 0, 0, 0, 0, 0, 0, 0, 0, 0, 0, 0, 0, 0, 0, 0, 0, 0, 0, 0, 0, 0, 0, 0, 0, 0, 0, 0, 0, 0, 0, 0, 0, 0, 0, 0, 0, 0, 0, 0, 0, 0, 0, 0, 0, 0, 0, 0, 0, 0, 0, 0, 0, 0, 0, 0, 0, 0, 0, 0, 0, 0, 0, 0, 0, 0, 0, 0, 0, 0, 0, 0, 0, 0, 0, 0, 0, 0, 0, 0, 0, 0, 0, 0, 0, 0, 0, 0, 0, 0, 0, 0, 0, 0, 0, 0, 0, 0, 0, 0, 0, 0, 0, 0, 0, 0, 0, 0, 0, 0, 0, 0, 0, 0, 0, 0, 0, 0, 0, 0, 0, 0, 0, 0, 0, 0, 0, 0, 0, 0, 0, 0, 0, 0, 0, 0, 0, 0, 0, 0, 0, 0, 0, 0, 0, 0, 0, 0, 0, 0, 0, 0, 0, 0, 0, 0, 0, 0, 0, 0, 0, 0, 0, 0, 0, 0, 0, 0, 0, 0, 0, 0, 0, 0, 0, 0, 0, 0, 0, 0, 0, 0, 0, 0, 0, 0, 0, 0, 0, 0, 0, 0, 0, 0, 0, 0, 0, 0, 0, 0, 0, 0, 0, 0, 0, 0, 0, 0, 0, 0, 0, 0, 0, 0, 0, 0, 0, 0, 0, 0, 0, 0, 0, 0, 0, 0, 0, 0, 0, 0, 0, 0, 0, 0, 0, 0, 0, 0, 0, 0, 0, 0, 0, 0, 0, 0, 0, 0, 0, 0, 0, 0, 0, 0, 0, 0, 0, 0, 0, 0, 0, 0, 0, 0, 0, 0, 0, 0, 0, 0, 0, 0, 0, 0, 0, 0, 0, 0, 0, 0, 0, 0, 0, 0, 0, 0, 0, 0, 0, 0, 0, 0, 0, 0, 0, 0, 0, 0, 0, 0, 0, 0, 0, 0, 0, 0, 0, 0, 0, 0, 0, 0, 0, 0, 0, 0, 0, 0, 0, 0, 0, 0, 0, 0, 0, 0, 0, 0, 0, 0, 0, 0, 0, 0, 0, 0, 0, 0, 0, 0, 0, 0, 0, 0, 0, 0, 0, 0, 0, 0, 0, 0, 0, 0, 0, 0, 0, 0, 0, 0, 0, 0, 0, 0, 0, 0, 0, 0, 0, 0, 0, 0, 0, 0, 0, 0, 0, 0, 0, 0, 0, 0, 0, 0, 0, 0, 0, 0, 0, 0, 0, 0, 0, 0, 0, 0, 0, 0, 0, 0, 0, 0, 0, 0, 0, 0, 0, 0, 0, 0, 0, 0, 0, 0, 0, 0, 0, 0, 0, 0, 0, 0, 0, 0, 0, 0, 0, 0, 0, 0, 0, 0, 0, 0, 0, 0, 0, 0, 0, 0, 0, 0, 0, 0, 0, 0, 0, 0, 0, 0, 0, 0, 0, 0, 0, 0, 0, 0, 0, 0, 0, 0, 0, 0, 0, 0, 0, 0, 0, 0, 0, 0, 0, 0, 0, 0, 0, 0, 0, 0, 0, 0, 0, 0, 0, 0, 0, 0, 0, 0, 0, 0, 0, 0, 0, 0, 0, 0, 0, 0, 0, 0, 0, 0, 15, 0, 0, 0, 0, 0, 0, 0, 0, 0, 0, 0, 0, 0, 0, 0, 0, 19, 0, 0, 0, 0, 0, 0, 0, 0, 0, 0, 0, 0, 0, 0, 0, 0, 23, 0, 0, 0, 0, 0, 0, 0, 0, 0, 0, 0, 0, 0, 0, 0, 0, 27, 0, 0, 0, 0, 0, 0, 0, 0, 0, 0, 0, 0, 0, 0, 0, 0, 31, 0, 0, 0, 0, 0, 0, 0, 0, 0, 0, 0, 0, 0, 0, 0, 0, 35, 0, 0, 0, 0, 0, 0, 0, 0, 0, 0, 0, 0, 0, 0, 0, 0, 42, 0, 0, 0, 0, 0, 0, 0, 0, 0, 0, 0, 0, 0, 0, 0, 0, 46, 0, 0, 0, 0, 0, 0, 0, 0, 0, 0, 0, 0, 0, 0, 0, 0, 47, 0, 0, 0, 0, 0, 0, 0, 0, 0, 0, 0, 0, 0, 0, 0, 0, 51, 0, 0, 0, 0, 0, 0, 0, 0, 0, 0, 0, 0, 0, 0, 0, 0, 55, 0, 0, 0, 0, 0, 0, 0, 0, 0, 0, 0, 0, 0, 0, 0, 0, 59, 0, 0, 0, 0, 0, 0, 0, 0, 0, 0, 0, 0, 0, 0, 0, 0, 16, 0, 0, 0, 0, 0, 0, 0, 0, 0, 0, 0, 0, 0, 0, 0, 0, 20, 0, 0, 0, 0, 0, 0, 0, 0, 0, 0, 0, 0, 0, 0, 0, 0, 24, 0, 0, 0, 0, 0, 0, 0, 0, 0, 0, 0, 0, 0, 0, 0, 0, 28, 0, 0, 0, 0, 0, 0, 0, 0, 0, 0, 0, 0, 0, 0, 0, 0, 32, 0, 0, 0, 0, 0, 0, 0, 0, 0, 0, 0, 0, 0, 0, 0, 0, 36, 0, 0, 0, 0, 0, 0, 0, 0, 0, 0, 0, 0, 0, 0, 0, 0, 40, 0, 0, 0, 0, 0, 0, 0, 0, 0, 0, 0, 0, 0, 0, 0, 0, 59, 0, 0, 0, 0, 0, 0, 0, 0, 0, 0, 0, 0, 0, 0, 0, 0, 39, 0, 0, 0, 0, 0, 0, 0, 0, 0, 0, 0, 0, 0, 0, 0, 0, 43, 0, 0, 0, 0, 0, 0, 0, 0, 0, 0, 0, 0, 0, 0, 0, 0, 47, 0, 0, 0, 0, 0, 0, 0, 0, 0, 0, 0, 0, 0, 0, 0, 0, 51, 0, 0, 0, 0, 0, 0, 0, 0, 0, 0, 0, 0, 0, 0, 0, 0, 55, 0, 0, 0, 0, 0, 0, 0, 0, 0, 0, 0, 0, 0, 0, 0, 0, 59, 0, 0, 0, 0, 0, 0, 0, 0, 0, 0, 0, 0, 0, 0, 0, 0, 16, 0, 0, 0, 0, 0, 0, 0, 0, 0, 0, 0, 0, 0, 0, 0, 0, 20, 0, 0, 0, 0, 0, 0, 0, 0, 0, 0, 0, 0, 0, 0, 0, 0, 24, 0, 0, 0, 0, 0, 0, 0, 0, 0, 0, 0, 0, 0, 0, 0, 0, 28, 0, 0, 0, 0, 0, 0, 0, 0, 0, 0, 0, 0, 0, 0, 0, 0, 32, 0, 0, 0, 0, 0, 0, 0, 0, 0, 0, 0, 0, 0, 0, 0, 0, 36, 0, 0, 0, 0, 0, 0, 0, 0, 0, 0, 0, 0, 0, 0, 0, 0, 40, 0, 0, 0, 0, 0, 0, 0, 0, 0, 0, 0, 0, 0, 0, 0, 0, 59, 0, 0, 0, 0, 0, 0, 0, 0, 0, 0, 0, 0, 0, 0, 0, 0, 39, 0, 0, 0, 0, 0, 0, 0, 0, 0, 0, 0, 0, 0, 0, 0, 0, 43, 0, 0, 0, 0, 0, 0, 0, 0, 0, 0, 0, 0, 0, 0, 0, 0, 50, 0, 0, 0, 0, 0, 0, 0, 0, 0, 0, 0, 0, 0, 0, 0, 0, 54, 0, 0, 0, 0, 0, 0, 0, 0, 0, 0, 0, 0, 0, 0, 0, 0, 58, 0, 0, 0, 0, 0, 0, 0, 0, 0, 0, 0, 0, 0, 0, 0, 0, 35, 0, 0, 0, 0, 0, 0, 0, 0, 0, 0, 0, 0, 0, 0, 0, 0, 44, 0, 0, 0, 0, 0, 0, 0, 0, 0, 0, 0, 0, 0, 0, 0, 0, 48, 0, 0, 0, 0, 0, 0, 0, 0, 0, 0, 0, 0, 0, 0, 0, 0, 52, 0, 0, 0, 0, 0, 0, 0, 0, 0, 0, 0, 0, 0, 0, 0, 0, 56, 0, 0, 0, 0, 0, 0, 0, 0, 0, 0, 0, 0, 0, 0, 0, 0, 0, 0, 0, 0, 0, 0, 0, 0, 0, 0, 0, 0, 0, 0, 0, 0, 0, 0, 0, 0, 0, 0, 0, 0, 0, 0, 0, 0, 0, 0, 0, 0, 0, 0, 0, 0, 0, 0, 0, 0, 0, 0, 0, 0, 0, 0, 0, 0, 0, 0, 0, 0, 0, 0, 0, 0, 0, 0, 0, 0, 0, 0, 0, 0, 0, 0, 0, 0, 0, 0, 0, 0, 0, 0, 0, 0, 0, 0, 0, 0, 0, 0, 0, 0, 0, 0, 0, 0, 0, 0, 0, 0, 0, 0, 0, 0, 0, 0, 0, 0, 0, 0, 0, 0, 0, 0, 0, 0, 0, 0, 0, 0, 0, 0, 0, 0, 0, 0, 0, 0, 0, 0, 0, 0, 0, 0, 0, 0, 0, 0, 0, 0, 0, 0, 0, 0, 0, 0, 0, 0, 0, 0, 0, 0, 0, 0, 0, 0, 0, 0, 0, 0, 0, 0, 0, 0, 0, 0, 0, 0, 0, 0, 0, 0, 0, 0, 0, 0, 0, 0, 0, 0, 0, 0, 0, 0, 0, 0, 0, 0, 0, 0, 0, 0, 0, 0, 0, 0, 0, 0, 0, 0, 0, 0, 0, 0, 0, 0, 0, 0, 0, 0, 0, 0, 0, 0, 0, 0, 0, 0, 0, 0, 0, 0, 0, 0, 0, 0, 0, 0, 0, 0, 0, 0, 0, 0, 0, 0, 0, 0, 0, 0, 0, 0, 0, 0, 0, 0, 0, 0, 0, 0, 0, 0, 0, 0, 0, 0, 0, 0, 0, 0, 0, 0, 0, 0, 0, 0, 0, 0, 0, 0, 0, 0, 0, 0, 0, 0, 0, 0, 0, 0, 0, 0, 0, 0, 0, 0, 0, 0, 0, 0, 0, 0, 0, 0, 0, 0, 0, 0, 0, 0, 0, 0, 0, 0, 0, 0, 0, 0, 0, 0, 0, 0, 0, 0, 0, 0, 0, 0, 0, 0, 0, 0, 0, 0, 0, 0, 0, 0, 0, 0, 0, 0, 0, 0, 0, 0, 0, 0, 0, 0, 0, 0, 0, 0, 0, 0, 0, 0, 0, 0, 0, 0, 0, 0, 0, 0, 0, 0, 0, 0, 0, 0, 0, 0, 0, 0, 0, 0, 0, 0, 0, 0, 0, 0, 0, 0, 0, 0, 0, 0, 0, 0, 0, 0, 0, 0, 0, 0, 0, 0, 0, 0, 0, 0, 0, 0, 0, 0, 0, 0, 0, 0, 0, 0, 0, 0, 0, 0, 0, 0, 0, 0, 0, 0, 0, 0, 0, 0, 0, 0, 0, 0, 0, 0, 0, 0, 0, 0, 0, 0, 0, 0, 0, 0, 0, 0, 0, 0, 0, 0, 0, 0, 0, 0, 0, 0, 0, 0, 0, 0, 0, 0, 0, 0, 0, 0, 0, 0, 0, 0, 0, 0, 0, 0, 0, 0, 0, 0, 0, 0, 0, 0, 0, 0, 0, 0, 0, 0, 0, 0, 0, 0, 0, 0, 0, 0, 0, 0, 0, 0, 0, 0, 0, 0, 0, 0, 0, 0, 0, 0, 0, 0, 0, 0, 0, 0, 0, 0, 0, 0, 0, 0, 0, 0, 0, 0, 0, 0, 0, 0, 0, 0, 0, 0, 0, 0, 0, 0, 0, 0, 0, 0, 0, 0, 0, 0, 0, 0, 0, 0, 0, 0, 0, 0, 0, 0, 0, 0, 0, 0, 0, 0, 0, 0, 0, 0, 0, 0, 0, 0, 0, 0, 0, 0, 0, 0, 0, 0, 0, 0, 0, 0, 0, 0, 0, 0, 0, 0, 0, 0, 0, 0, 0, 0, 0, 0, 0, 0, 0, 0, 0, 0, 0, 0, 0, 0, 0, 0, 0, 0, 0, 0, 0, 0, 0, 0, 0, 0, 0, 0, 0, 0, 0, 0, 0, 0, 0, 0, 0, 0, 0, 0, 0, 0, 0, 0, 0, 0, 0, 0, 0, 0, 0, 0, 0, 0, 0, 0, 0, 0, 0, 0, 0, 0, 0, 0, 0, 0, 0, 0, 0, 0, 0, 0, 0, 0, 0, 0, 0, 0, 0, 0, 0, 0, 0, 0, 0, 0, 0, 0, 0, 0, 0, 0, 0, 0, 0, 0, 0, 0, 0, 0, 0, 0, 0, 0, 0, 0, 0, 0, 0, 0, 0, 0, 0, 0, 0, 0, 0, 0, 0, 0, 0, 0, 0, 0, 0, 0, 0, 0, 0, 0, 0, 0, 0, 0, 0, 0, 0, 0, 0, 0, 0, 0, 0, 0, 0, 0, 0, 0, 0, 0, 0, 0, 0, 0, 0, 0, 0, 0, 0, 0, 0, 0, 0, 0, 0, 0, 0, 0, 0, 0, 0, 0, 0, 0, 0, 0, 0, 0, 0, 0, 0, 0, 0, 0, 0, 0, 0, 0, 0, 0, 0, 0, 0, 0, 0, 0, 0, 0, 0, 0, 0, 0, 0, 0, 0, 0, 0, 0, 0, 0, 0, 0, 0, 0, 0, 0, 0, 0, 0, 0, 0, 0, 0, 0, 0, 0, 0, 0, 0, 0, 0, 0, 0, 0, 0, 0, 0, 0, 0, 0, 0, 0, 0, 0, 0, 0, 0, 0, 0, 0, 0, 0, 0, 0, 0, 0, 0, 0, 0, 0, 0, 0, 0, 0, 0, 0, 0, 0, 0, 0, 0, 0, 0, 0, 0, 0, 0, 0, 0, 0, 0, 0, 0, 0, 0, 0, 0, 0, 0, 0, 0, 0, 0, 0, 0, 0, 0, 0, 0, 0, 0, 0, 0, 0, 0, 0, 0, 0, 0, 0, 0, 0, 0, 0, 0, 0, 0, 0, 0, 0, 0, 0, 0, 0, 0, 0, 0, 0, 0, 0, 0, 0, 0, 0, 0, 0, 0, 0, 0, 0, 0, 0, 0, 0, 0, 0, 0, 0, 0, 0, 0, 0, 0, 0, 0, 0, 0, 0, 0, 0, 0, 0, 0, 0, 0, 0, 0, 0, 0, 0, 0, 0, 0, 0, 0, 0, 0, 0, 0, 0, 0, 0, 0, 0, 0, 0, 0, 0, 0, 0, 0, 0, 0, 0, 0, 0, 0, 0, 0, 0, 0, 0, 0, 0, 0, 0, 0, 0, 0, 0, 0, 0, 0, 0, 0, 0, 0, 0, 0, 0, 0, 0, 0, 0, 0, 0, 0, 0, 0, 0, 0, 0, 0, 0, 0, 0, 0, 0, 0, 0, 0, 0, 0, 0, 0, 0, 0, 0, 0, 0, 0, 0, 0, 0],
         "height":145,
         "id":3,
         "name":"ZugSeite",
         "opacity":1,
         "type":"tilelayer",
         "visible":true,
         "width":17,
         "x":0,
         "y":0
        }, 
        {
         "draworder":"topdown",
         "id":4,
         "name":"floorLayer",
         "objects":[],
         "opacity":1,
         "type":"objectgroup",
         "visible":true,
         "x":0,
         "y":0
        }, 
        {
         "data":[0, 0, 0, 0, 0, 0, 0, 0, 0, 0, 0, 0, 0, 0, 0, 0, 0, 0, 0, 0, 0, 0, 0, 0, 0, 0, 0, 0, 0, 0, 0, 0, 0, 0, 0, 0, 0, 0, 0, 0, 0, 0, 0, 0, 0, 0, 0, 0, 0, 0, 0, 0, 0, 0, 0, 0, 0, 0, 0, 0, 0, 0, 0, 0, 0, 0, 0, 0, 0, 0, 0, 0, 0, 0, 0, 0, 0, 0, 0, 0, 0, 0, 0, 0, 0, 0, 0, 0, 0, 0, 0, 0, 0, 0, 0, 0, 0, 0, 0, 0, 0, 0, 0, 0, 0, 0, 0, 0, 0, 0, 0, 0, 0, 0, 0, 0, 0, 0, 0, 0, 0, 0, 0, 0, 0, 0, 0, 0, 0, 0, 0, 0, 0, 0, 0, 0, 0, 0, 0, 0, 0, 0, 0, 0, 0, 0, 0, 0, 0, 0, 0, 0, 0, 0, 0, 0, 0, 0, 0, 0, 0, 0, 0, 0, 0, 0, 0, 0, 0, 0, 0, 0, 0, 0, 0, 0, 0, 0, 0, 0, 0, 0, 0, 0, 0, 0, 0, 0, 0, 0, 0, 0, 0, 0, 0, 0, 0, 0, 0, 0, 0, 0, 0, 0, 0, 0, 0, 0, 0, 0, 0, 0, 0, 0, 0, 0, 0, 0, 0, 0, 0, 0, 0, 0, 0, 0, 0, 0, 0, 0, 0, 0, 0, 0, 0, 0, 0, 0, 0, 0, 0, 0, 0, 0, 0, 0, 0, 0, 0, 0, 0, 0, 0, 0, 0, 0, 0, 0, 0, 0, 0, 0, 0, 0, 0, 0, 0, 0, 0, 0, 0, 0, 0, 0, 0, 0, 0, 0, 0, 0, 0, 0, 0, 0, 0, 0, 0, 0, 0, 0, 0, 0, 0, 0, 0, 0, 0, 0, 0, 0, 0, 0, 0, 0, 0, 0, 0, 0, 0, 0, 0, 0, 0, 0, 0, 0, 0, 0, 0, 0, 0, 0, 0, 0, 0, 0, 0, 0, 0, 0, 0, 0, 0, 0, 0, 0, 0, 0, 0, 0, 0, 0, 0, 0, 0, 0, 0, 0, 0, 0, 0, 0, 0, 0, 0, 0, 0, 0, 0, 0, 0, 0, 0, 0, 0, 0, 0, 0, 0, 0, 0, 0, 0, 0, 0, 0, 0, 0, 0, 0, 0, 0, 0, 0, 0, 0, 0, 0, 0, 0, 0, 0, 0, 0, 0, 0, 0, 0, 0, 0, 0, 0, 0, 0, 0, 0, 0, 0, 0, 0, 0, 0, 0, 0, 0, 0, 0, 0, 0, 0, 0, 0, 0, 0, 0, 0, 0, 0, 0, 0, 0, 0, 0, 0, 0, 0, 0, 0, 0, 0, 0, 0, 0, 0, 0, 0, 0, 0, 0, 0, 0, 0, 0, 0, 0, 0, 0, 0, 0, 0, 0, 0, 0, 0, 0, 0, 0, 0, 0, 0, 0, 0, 0, 0, 0, 0, 0, 0, 0, 0, 0, 0, 0, 0, 0, 0, 0, 0, 0, 0, 0, 0, 0, 0, 0, 0, 0, 0, 0, 0, 0, 0, 0, 0, 0, 0, 0, 0, 0, 0, 0, 0, 0, 0, 0, 0, 0, 0, 0, 0, 0, 0, 0, 0, 0, 0, 0, 0, 0, 0, 0, 0, 0, 0, 0, 0, 0, 0, 0, 0, 0, 0, 0, 0, 0, 0, 0, 0, 0, 0, 0, 0, 0, 0, 0, 0, 0, 0, 0, 0, 0, 0, 0, 0, 0, 0, 0, 0, 0, 0, 0, 0, 0, 0, 0, 0, 0, 0, 0, 0, 0, 0, 0, 0, 0, 0, 0, 0, 0, 0, 0, 0, 0, 0, 0, 0, 0, 0, 0, 0, 0, 0, 0, 0, 0, 0, 0, 0, 0, 0, 0, 0, 0, 0, 0, 0, 0, 0, 0, 0, 0, 0, 0, 0, 0, 0, 0, 0, 0, 0, 0, 0, 0, 0, 0, 0, 0, 0, 0, 0, 0, 0, 0, 0, 0, 0, 0, 0, 0, 0, 0, 0, 0, 0, 0, 0, 0, 0, 0, 0, 0, 0, 0, 0, 0, 0, 0, 0, 0, 0, 0, 0, 0, 0, 0, 0, 0, 0, 0, 0, 0, 0, 0, 0, 0, 0, 0, 13, 14, 0, 0, 0, 0, 0, 0, 0, 0, 0, 0, 0, 0, 0, 0, 0, 17, 18, 0, 0, 0, 0, 0, 0, 0, 0, 0, 0, 0, 0, 0, 0, 0, 21, 22, 0, 0, 0, 0, 0, 0, 0, 0, 0, 0, 0, 0, 0, 0, 0, 21, 22, 0, 0, 0, 0, 0, 0, 0, 0, 0, 0, 0, 0, 0, 0, 0, 21, 22, 0, 0, 0, 0, 0, 0, 0, 0, 0, 0, 0, 0, 0, 0, 0, 21, 22, 0, 0, 0, 0, 0, 0, 0, 0, 0, 0, 0, 0, 0, 0, 0, 21, 41, 0, 0, 0, 0, 0, 0, 0, 0, 0, 0, 0, 0, 0, 0, 0, 21, 45, 0, 0, 0, 0, 0, 0, 0, 0, 0, 0, 0, 0, 0, 0, 0, 21, 22, 0, 0, 0, 0, 0, 0, 0, 0, 0, 0, 0, 0, 0, 0, 0, 21, 22, 0, 0, 0, 0, 0, 0, 0, 0, 0, 0, 0, 0, 0, 0, 0, 21, 22, 0, 0, 0, 0, 0, 0, 0, 0, 0, 0, 0, 0, 0, 0, 0, 21, 22, 0, 0, 0, 0, 0, 0, 0, 0, 0, 0, 0, 0, 0, 0, 0, 21, 22, 0, 0, 0, 0, 0, 0, 0, 0, 0, 0, 0, 0, 0, 0, 0, 21, 22, 0, 0, 0, 0, 0, 0, 0, 0, 0, 0, 0, 0, 0, 0, 0, 25, 26, 0, 0, 0, 0, 0, 0, 0, 0, 0, 0, 0, 0, 0, 0, 0, 29, 30, 0, 0, 0, 0, 0, 0, 0, 0, 0, 0, 0, 0, 0, 0, 0, 21, 22, 0, 0, 0, 0, 0, 0, 0, 0, 0, 0, 0, 0, 0, 0, 0, 21, 22, 0, 0, 0, 0, 0, 0, 0, 0, 0, 0, 0, 0, 0, 0, 0, 21, 22, 0, 0, 0, 0, 0, 0, 0, 0, 0, 0, 0, 0, 0, 0, 0, 21, 22, 0, 0, 0, 0, 0, 0, 0, 0, 0, 0, 0, 0, 0, 0, 0, 21, 22, 0, 0, 0, 0, 0, 0, 0, 0, 0, 0, 0, 0, 0, 0, 0, 21, 22, 0, 0, 0, 0, 0, 0, 0, 0, 0, 0, 0, 0, 0, 0, 0, 21, 22, 0, 0, 0, 0, 0, 0, 0, 0, 0, 0, 0, 0, 0, 0, 0, 21, 22, 0, 0, 0, 0, 0, 0, 0, 0, 0, 0, 0, 0, 0, 0, 0, 21, 22, 0, 0, 0, 0, 0, 0, 0, 0, 0, 0, 0, 0, 0, 0, 0, 21, 22, 0, 0, 0, 0, 0, 0, 0, 0, 0, 0, 0, 0, 0, 0, 0, 21, 22, 0, 0, 0, 0, 0, 0, 0, 0, 0, 0, 0, 0, 0, 0, 0, 21, 22, 0, 0, 0, 0, 0, 0, 0, 0, 0, 0, 0, 0, 0, 0, 0, 25, 26, 0, 0, 0, 0, 0, 0, 0, 0, 0, 0, 0, 0, 0, 0, 0, 29, 30, 0, 0, 0, 0, 0, 0, 0, 0, 0, 0, 0, 0, 0, 0, 0, 21, 22, 0, 0, 0, 0, 0, 0, 0, 0, 0, 0, 0, 0, 0, 0, 0, 21, 22, 0, 0, 0, 0, 0, 0, 0, 0, 0, 0, 0, 0, 0, 0, 0, 21, 22, 0, 0, 0, 0, 0, 0, 0, 0, 0, 0, 0, 0, 0, 0, 0, 21, 22, 0, 0, 0, 0, 0, 0, 0, 0, 0, 0, 0, 0, 0, 0, 0, 21, 22, 0, 0, 0, 0, 0, 0, 0, 0, 0, 0, 0, 0, 0, 0, 0, 21, 22, 0, 0, 0, 0, 0, 0, 0, 0, 0, 0, 0, 0, 0, 0, 0, 21, 49, 0, 0, 0, 0, 0, 0, 0, 0, 0, 0, 0, 0, 0, 0, 0, 21, 53, 0, 0, 0, 0, 0, 0, 0, 0, 0, 0, 0, 0, 0, 0, 0, 21, 22, 0, 0, 0, 0, 0, 0, 0, 0, 0, 0, 0, 0, 0, 0, 0, 21, 22, 0, 0, 0, 0, 0, 0, 0, 0, 0, 0, 0, 0, 0, 0, 0, 21, 22, 0, 0, 0, 0, 0, 0, 0, 0, 0, 0, 0, 0, 0, 0, 0, 21, 22, 0, 0, 0, 0, 0, 0, 0, 0, 0, 0, 0, 0, 0, 0, 0, 33, 34, 0, 0, 0, 0, 0, 0, 0, 0, 0, 0, 0, 0, 0, 0, 0, 37, 38, 0, 0, 0, 0, 0, 0, 0, 0, 0, 0, 0, 0, 0, 0, 0, 0, 0, 0, 0, 0, 0, 0, 0, 0, 0, 0, 0, 0, 0, 0, 0, 0, 0, 0, 0, 0, 0, 0, 0, 0, 0, 0, 0, 0, 0, 0, 0, 0, 0, 0, 0, 0, 0, 0, 0, 0, 0, 0, 0, 0, 0, 0, 0, 0, 0, 0, 0, 0, 0, 0, 0, 0, 0, 0, 0, 0, 0, 0, 0, 0, 0, 0, 0, 0, 0, 0, 0, 0, 0, 0, 0, 0, 0, 0, 0, 0, 0, 0, 0, 0, 0, 0, 0, 0, 0, 0, 0, 0, 0, 0, 0, 0, 0, 0, 0, 0, 0, 0, 0, 0, 0, 0, 0, 0, 0, 0, 0, 0, 0, 0, 0, 0, 0, 0, 0, 0, 0, 0, 0, 0, 0, 0, 0, 0, 0, 0, 0, 0, 0, 0, 0, 0, 0, 0, 0, 0, 0, 0, 0, 0, 0, 0, 0, 0, 0, 0, 0, 0, 0, 0, 0, 0, 0, 0, 0, 0, 0, 0, 0, 0, 0, 0, 0, 0, 0, 0, 0, 0, 0, 0, 0, 0, 0, 0, 0, 0, 0, 0, 0, 0, 0, 0, 0, 0, 0, 0, 0, 0, 0, 0, 0, 0, 0, 0, 0, 0, 0, 0, 0, 0, 0, 0, 0, 0, 0, 0, 0, 0, 0, 0, 0, 0, 0, 0, 0, 0, 0, 0, 0, 0, 0, 0, 0, 0, 0, 0, 0, 0, 0, 0, 0, 0, 0, 0, 0, 0, 0, 0, 0, 0, 0, 0, 0, 0, 0, 0, 0, 0, 0, 0, 0, 0, 0, 0, 0, 0, 0, 0, 0, 0, 0, 0, 0, 0, 0, 0, 0, 0, 0, 0, 0, 0, 0, 0, 0, 0, 0, 0, 0, 0, 0, 0, 0, 0, 0, 0, 0, 0, 0, 0, 0, 0, 0, 0, 0, 0, 0, 0, 0, 0, 0, 0, 0, 0, 0, 0, 0, 0, 0, 0, 0, 0, 0, 0, 0, 0, 0, 0, 0, 0, 0, 0, 0, 0, 0, 0, 0, 0, 0, 0, 0, 0, 0, 0, 0, 0, 0, 0, 0, 0, 0, 0, 0, 0, 0, 0, 0, 0, 0, 0, 0, 0, 0, 0, 0, 0, 0, 0, 0, 0, 0, 0, 0, 0, 0, 0, 0, 0, 0, 0, 0, 0, 0, 0, 0, 0, 0, 0, 0, 0, 0, 0, 0, 0, 0, 0, 0, 0, 0, 0, 0, 0, 0, 0, 0, 0, 0, 0, 0, 0, 0, 0, 0, 0, 0, 0, 0, 0, 0, 0, 0, 0, 0, 0, 0, 0, 0, 0, 0, 0, 0, 0, 0, 0, 0, 0, 0, 0, 0, 0, 0, 0, 0, 0, 0, 0, 0, 0, 0, 0, 0, 0, 0, 0, 0, 0, 0, 0, 0, 0, 0, 0, 0, 0, 0, 0, 0, 0, 0, 0, 0, 0, 0, 0, 0, 0, 0, 0, 0, 0, 0, 0, 0, 0, 0, 0, 0, 0, 0, 0, 0, 0, 0, 0, 0, 0, 0, 0, 0, 0, 0, 0, 0, 0, 0, 0, 0, 0, 0, 0, 0, 0, 0, 0, 0, 0, 0, 0, 0, 0, 0, 0, 0, 0, 0, 0, 0, 0, 0, 0, 0, 0, 0, 0, 0, 0, 0, 0, 0, 0, 0, 0, 0, 0, 0, 0, 0, 0, 0, 0, 0, 0, 0, 0, 0, 0, 0, 0, 0, 0, 0, 0, 0, 0, 0, 0, 0, 0, 0, 0, 0, 0, 0, 0, 0, 0, 0, 0, 0, 0, 0, 0, 0, 0, 0, 0, 0, 0, 0, 0, 0, 0, 0, 0, 0, 0, 0, 0, 0, 0, 0, 0, 0, 0, 0, 0, 0, 0, 0, 0, 0, 0, 0, 0, 0, 0, 0, 0, 0, 0, 0, 0, 0, 0, 0, 0, 0, 0, 0, 0, 0, 0, 0, 0, 0, 0, 0, 0, 0, 0, 0, 0, 0, 0, 0, 0, 0, 0, 0, 0, 0, 0, 0, 0, 0, 0, 0, 0, 0, 0, 0, 0, 0, 0, 0, 0, 0, 0, 0, 0, 0, 0, 0, 0, 0, 0, 0, 0, 0, 0, 0, 0, 0, 0, 0, 0, 0, 0, 0, 0, 0, 0, 0, 0, 0, 0, 0, 0, 0, 0, 0, 0, 0, 0, 0, 0, 0, 0, 0, 0, 0, 0, 0, 0, 0, 0, 0, 0, 0, 0, 0, 0, 0, 0, 0, 0, 0, 0, 0, 0, 0, 0, 0, 0, 0, 0, 0, 0, 0, 0, 0, 0, 0, 0, 0, 0, 0, 0, 0, 0, 0, 0, 0, 0, 0, 0, 0, 0, 0, 0, 0, 0, 0, 0, 0, 0, 0, 0, 0, 0, 0, 0, 0, 0, 0, 0, 0, 0, 0, 0, 0, 0, 0, 0, 0, 0, 0, 0, 0, 0, 0, 0, 0, 0, 0, 0, 0, 0, 0, 0, 0, 0, 0, 0, 0, 0, 0, 0, 0, 0, 0, 0, 0, 0, 0, 0, 0, 0, 0, 0, 0, 0, 0, 0, 0, 0, 0, 0, 0, 0, 0, 0, 0, 0, 0, 0, 0, 0, 0, 0, 0, 0, 0, 0, 0, 0, 0, 0, 0, 0, 0, 0, 0, 0, 0, 0, 0, 0, 0, 0, 0, 0, 0, 0, 0, 0, 0, 0, 0, 0, 0, 0, 0, 0, 0, 0, 0, 0, 0, 0, 0, 0, 0, 0, 0, 0, 0, 0, 0, 0, 0, 0, 0, 0, 0, 0, 0, 0, 0, 0, 0, 0, 0, 0, 0, 0, 0, 0, 0, 0, 0, 0, 0, 0, 0, 0, 0, 0, 0, 0, 0, 0, 0, 0, 0, 0, 0, 0, 0, 0, 0, 0, 0, 0, 0, 0, 0, 0, 0, 0, 0, 0, 0, 0, 0, 0, 0, 0, 0, 0, 0, 0, 0, 0, 0, 0, 0, 0, 0, 0, 0, 0, 0, 0, 0, 0, 0, 0, 0, 0, 0, 0, 0, 0, 0, 0, 0, 0, 0, 0, 0, 0, 0, 0, 0, 0, 0, 0, 0, 0, 0, 0, 0, 0, 0, 0, 0, 0, 0, 0, 0, 0, 0, 0, 0, 0, 0, 0, 0, 0, 0, 0, 0, 0, 0, 0, 0, 0, 0, 0, 0, 0, 0, 0, 0, 0, 0, 0, 0, 0, 0, 0, 0, 0, 0],
         "height":145,
         "id":5,
         "name":"ZugOben",
         "opacity":1,
         "type":"tilelayer",
         "visible":true,
         "width":17,
         "x":0,
         "y":0
        }],
 "nextlayerid":6,
 "nextobjectid":1,
 "orientation":"orthogonal",
 "renderorder":"right-down",
 "tiledversion":"1.4.3",
 "tileheight":32,
 "tilesets":[
        {
         "columns":3,
         "firstgid":1,
         "image":"img-stw\/bahnsteig-sn.png",
         "imageheight":128,
         "imagewidth":96,
         "margin":0,
         "name":"bahnsteig-sn",
         "spacing":0,
         "tilecount":12,
         "tileheight":32,
         "tiles":[
                {
                 "id":0,
                 "properties":[
                        {
                         "name":"collides",
                         "type":"bool",
                         "value":true
                        }]
                }, 
                {
                 "id":1,
                 "properties":[
                        {
                         "name":"collides",
                         "type":"bool",
                         "value":true
                        }]
                }],
         "tilewidth":32
        }, 
        {
         "columns":4,
         "firstgid":13,
         "image":"img-stw\/cityjet-sn.png",
         "imageheight":384,
         "imagewidth":128,
         "margin":0,
         "name":"cityjet-sn",
         "spacing":0,
         "tilecount":48,
         "tileheight":32,
         "tilewidth":32
        }],
 "tilewidth":32,
 "type":"map",
 "version":1.4,
 "width":17
}